<?xml version="1.0" encoding="UTF-8" standalone="no"?>
<svg
   xmlns:dc="http://purl.org/dc/elements/1.1/"
   xmlns:cc="http://creativecommons.org/ns#"
   xmlns:rdf="http://www.w3.org/1999/02/22-rdf-syntax-ns#"
   xmlns:svg="http://www.w3.org/2000/svg"
   xmlns="http://www.w3.org/2000/svg"
   xmlns:sodipodi="http://sodipodi.sourceforge.net/DTD/sodipodi-0.dtd"
   xmlns:inkscape="http://www.inkscape.org/namespaces/inkscape"
   width="750.71875"
   height="750.71875"
   viewBox="0 0 600.57501 600.57499"
   xml:space="preserve"
   id="svg3112"
   version="1.1"
   inkscape:version="0.48.5 r10040"
   sodipodi:docname="dbchiro_logo_postgresql.svg"><metadata
     id="metadata3144"><rdf:RDF><cc:Work
         rdf:about=""><dc:format>image/svg+xml</dc:format><dc:type
           rdf:resource="http://purl.org/dc/dcmitype/StillImage" /><dc:title></dc:title></cc:Work></rdf:RDF></metadata><defs
     id="defs3142" /><sodipodi:namedview
     pagecolor="#ffffff"
     bordercolor="#666666"
     borderopacity="1"
     objecttolerance="10"
     gridtolerance="10"
     guidetolerance="10"
     inkscape:pageopacity="0"
     inkscape:pageshadow="2"
     inkscape:window-width="956"
     inkscape:window-height="1003"
     id="namedview3140"
     showgrid="false"
     fit-margin-top="0"
     fit-margin-left="0"
     fit-margin-right="0"
     fit-margin-bottom="0"
     inkscape:zoom="0.51661315"
     inkscape:cx="656.08948"
     inkscape:cy="-50.035039"
     inkscape:window-x="960"
     inkscape:window-y="50"
     inkscape:window-maximized="0"
     inkscape:current-layer="svg3112" /><path
     sodipodi:type="arc"
     style="fill:#336791;fill-opacity:1;stroke:#ffffff;stroke-width:50;stroke-miterlimit:4;stroke-opacity:1;stroke-dasharray:none"
     id="path3088"
     sodipodi:cx="352.29456"
     sodipodi:cy="351.17236"
     sodipodi:rx="350.35889"
     sodipodi:ry="350.35889"
     d="m 702.65344,351.17236 a 350.35889,350.35889 0 1 1 -700.7177711,0 350.35889,350.35889 0 1 1 700.7177711,0 z"
     transform="matrix(0.80000001,0,0,0.80000001,18.45,19.34999)" /><g
     id="Layer_x0020_3"
     style="fill:#336791;fill-opacity:1;fill-rule:nonzero;stroke:#ffffff;stroke-width:12.46510029;stroke-linecap:round;stroke-linejoin:round;stroke-miterlimit:4"
     transform="matrix(0.95411956,0,0,0.95411956,85.496153,113.38965)"><path
       style="fill:#336791;fill-opacity:1;stroke:#000000;stroke-width:37.39530182;stroke-linecap:butt;stroke-linejoin:miter"
       d="m 323.205,324.227 c 2.833,-23.601 1.984,-27.062 19.563,-23.239 l 4.463,0.392 c 13.517,0.615 31.199,-2.174 41.587,-7 22.362,-10.376 35.622,-27.7 13.572,-23.148 -50.297,10.376 -53.755,-6.655 -53.755,-6.655 C 401.746,185.774 423.948,85.741 404.784,61.255 352.514,-5.534 262.036,26.049 260.522,26.869 l -0.482,0.089 c -9.938,-2.062 -21.06,-3.294 -33.554,-3.496 -22.761,-0.374 -40.032,5.967 -53.133,15.904 0,0 -161.408,-66.498 -153.899,83.628 1.597,31.936 45.777,241.655 98.47,178.31 19.259,-23.163 37.871,-42.748 37.871,-42.748 9.242,6.14 20.307,9.272 31.912,8.147 l 0.897,-0.765 c -0.281,2.876 -0.157,5.689 0.359,9.019 -13.572,15.167 -9.584,17.83 -36.723,23.416 -27.457,5.659 -11.326,15.734 -0.797,18.367 12.768,3.193 42.305,7.716 62.268,-20.224 l -0.795,3.188 c 5.325,4.26 4.965,30.619 5.72,49.452 0.756,18.834 2.017,36.409 5.856,46.771 3.839,10.36 8.369,37.05 44.036,29.406 29.809,-6.388 52.6,-15.582 54.677,-101.107"
       id="path3116"
       inkscape:connector-curvature="0" /><path
       style="fill:#336791;fill-opacity:1;stroke:none"
       d="m 402.395,271.23 c -50.302,10.376 -53.76,-6.655 -53.76,-6.655 53.111,-78.808 75.313,-178.843 56.153,-203.326 -52.27,-66.785 -142.752,-35.2 -144.262,-34.38 l -0.486,0.087 c -9.938,-2.063 -21.06,-3.292 -33.56,-3.496 -22.761,-0.373 -40.026,5.967 -53.127,15.902 0,0 -161.411,-66.495 -153.904,83.63 1.597,31.938 45.776,241.657 98.471,178.312 19.26,-23.163 37.869,-42.748 37.869,-42.748 9.243,6.14 20.308,9.272 31.908,8.147 l 0.901,-0.765 c -0.28,2.876 -0.152,5.689 0.361,9.019 -13.575,15.167 -9.586,17.83 -36.723,23.416 -27.459,5.659 -11.328,15.734 -0.796,18.367 12.768,3.193 42.307,7.716 62.266,-20.224 l -0.796,3.188 c 5.319,4.26 9.054,27.711 8.428,48.969 -0.626,21.259 -1.044,35.854 3.147,47.254 4.191,11.4 8.368,37.05 44.042,29.406 29.809,-6.388 45.256,-22.942 47.405,-50.555 1.525,-19.631 4.976,-16.729 5.194,-34.28 l 2.768,-8.309 c 3.192,-26.611 0.507,-35.196 18.872,-31.203 l 4.463,0.392 c 13.517,0.615 31.208,-2.174 41.591,-7 22.358,-10.376 35.618,-27.7 13.573,-23.148 z"
       id="path3118"
       inkscape:connector-curvature="0" /><path
       d="m 215.866,286.484 c -1.385,49.516 0.348,99.377 5.193,111.495 4.848,12.118 15.223,35.688 50.9,28.045 29.806,-6.39 40.651,-18.756 45.357,-46.051 3.466,-20.082 10.148,-75.854 11.005,-87.281"
       id="path3120"
       style="fill:#336791;fill-opacity:1"
       inkscape:connector-curvature="0" /><path
       d="m 173.104,38.256 c 0,0 -161.521,-66.016 -154.012,84.109 1.597,31.938 45.779,241.664 98.473,178.316 19.256,-23.166 36.671,-41.335 36.671,-41.335"
       id="path3122"
       style="fill:#336791;fill-opacity:1"
       inkscape:connector-curvature="0" /><path
       d="m 260.349,26.207 c -5.591,1.753 89.848,-34.889 144.087,34.417 19.159,24.484 -3.043,124.519 -56.153,203.329"
       id="path3124"
       style="fill:#336791;fill-opacity:1"
       inkscape:connector-curvature="0" /><path
       style="fill:#336791;fill-opacity:1;stroke-linejoin:bevel"
       d="m 348.282,263.953 c 0,0 3.461,17.036 53.764,6.653 22.04,-4.552 8.776,12.774 -13.577,23.155 -18.345,8.514 -59.474,10.696 -60.146,-1.069 -1.729,-30.355 21.647,-21.133 19.96,-28.739 -1.525,-6.85 -11.979,-13.573 -18.894,-30.338 -6.037,-14.633 -82.796,-126.849 21.287,-110.183 3.813,-0.789 -27.146,-99.002 -124.553,-100.599 -97.385,-1.597 -94.19,119.762 -94.19,119.762"
       id="path3126"
       inkscape:connector-curvature="0" /><path
       d="m 188.604,274.334 c -13.577,15.166 -9.584,17.829 -36.723,23.417 -27.459,5.66 -11.326,15.733 -0.797,18.365 12.768,3.195 42.307,7.718 62.266,-20.229 6.078,-8.509 -0.036,-22.086 -8.385,-25.547 -4.034,-1.671 -9.428,-3.765 -16.361,3.994 z"
       id="path3128"
       style="fill:#336791;fill-opacity:1"
       inkscape:connector-curvature="0" /><path
       d="m 187.715,274.069 c -1.368,-8.917 2.93,-19.528 7.536,-31.942 6.922,-18.626 22.893,-37.255 10.117,-96.339 -9.523,-44.029 -73.396,-9.163 -73.436,-3.193 -0.039,5.968 2.889,30.26 -1.067,58.548 -5.162,36.913 23.488,68.132 56.479,64.938"
       id="path3130"
       style="fill:#336791;fill-opacity:1"
       inkscape:connector-curvature="0" /><path
       style="fill:#336791;fill-opacity:1;stroke-width:4.15500021;stroke-linecap:butt;stroke-linejoin:miter"
       d="m 172.517,141.7 c -0.288,2.039 3.733,7.48 8.976,8.207 5.234,0.73 9.714,-3.522 9.998,-5.559 0.284,-2.039 -3.732,-4.285 -8.977,-5.015 -5.237,-0.731 -9.719,0.333 -9.996,2.367 z"
       id="path3132"
       inkscape:connector-curvature="0" /><path
       style="fill:#336791;fill-opacity:1;stroke-width:2.0775001;stroke-linecap:butt;stroke-linejoin:miter"
       d="m 331.941,137.543 c 0.284,2.039 -3.732,7.48 -8.976,8.207 -5.238,0.73 -9.718,-3.522 -10.005,-5.559 -0.277,-2.039 3.74,-4.285 8.979,-5.015 5.239,-0.73 9.718,0.333 10.002,2.368 z"
       id="path3134"
       inkscape:connector-curvature="0" /><path
       d="m 350.676,123.432 c 0.863,15.994 -3.445,26.888 -3.988,43.914 -0.804,24.748 11.799,53.074 -7.191,81.435"
       id="path3136"
       style="fill:#336791;fill-opacity:1"
       inkscape:connector-curvature="0" /><path
       style="fill:#336791;fill-opacity:1;stroke-width:3"
       d="M 0,60.232"
       id="path3138"
       inkscape:connector-curvature="0" /></g><g
     id="g4649"
     transform="matrix(0.63158393,0,0,0.63158393,186.69752,252.44056)"
     inkscape:export-filename="/home/fcloitre/git/logo_bdchiro.png"
     inkscape:export-xdpi="90"
     inkscape:export-ydpi="90"><g
       style="fill-rule:nonzero;stroke:#000000;stroke-miterlimit:4"
       id="orginal" /><path
       inkscape:export-ydpi="300"
       inkscape:export-xdpi="300"
       inkscape:export-filename="E:\Dropbox\7 - Atlas (1)\Iconographie\Proposition_logos\essais_logiciel_inkscape_requis\Selection\Selection_bleu.png"
       sodipodi:nodetypes="ccccccccccccccccccccccccccccccccccccscccsccscccccccccscccsccccccccccccccsccc"
       inkscape:connector-curvature="0"
       id="path3915-1-3"
       style="fill:#336791;fill-opacity:1;stroke:#000000;stroke-width:40;stroke-miterlimit:4;stroke-opacity:1;stroke-dasharray:none;display:inline"
       d="m -205.30453,58.599857 c 4.59994,2.75578 8.36504,5.51158 11.34435,8.30424 7.17537,6.7769 13.64434,14.96532 19.44074,24.57582 8.53236,14.770463 13.06808,30.767113 13.52604,47.965233 12.9498,3.91467 23.96971,8.39567 33.03101,13.43474 9.07989,5.05216 17.72378,11.92417 25.93846,20.64069 9.176222,10.09 15.778702,19.26097 19.773652,27.51832 4.01353,8.24777 6.91005,19.28187 8.67938,33.08429 l 10.30507,1.08152 7.68572,1.50696 c 7.94934,2.4028 15.71955,7.32619 23.25824,14.76931 6.25605,6.21759 10.66334,12.49161 13.22694,18.82431 2.55176,6.32176 3.82258,13.54049 3.79891,21.6657 l 13.9890698,6.25419 c 3.18886,2.0548 5.56825,4.51773 7.13649,7.44056 2.43685,5.3522 2.90495,10.48785 1.38911,15.46133 l -3.00973,7.20831 c 3.64006,3.2668 5.48207,7.48945 5.52938,12.63872 l -0.42754,6.77937 c 4.7249902,8.89595 5.1221202,9.05438 12.1774902,16.28071 l 2.63627,12.08665 5.14577,6.45464 c 4.6743,6.15604 2.86948,10.57436 4.43264,13.48832 0,0 2.25265,0 12.49013,0 5.23703,-2.60052 13.26918,2.05755 16.23666,0 l 12.13356,0 19.98994,-2.62836 c 14.597448,-0.0169 16.118368,-0.004 24.790998,-1.0469 5.57671,-0.4736 10.26452,-0.88959 14.03133,-1.24258 3.81583,-0.33865 6.70895,-0.7399 8.75712,-1.21956 2.03466,-0.4456 5.71359,-1.50828 10.9557,-3.18134 5.26745,-1.65794 9.74064,-3.15532 13.40944,-4.48046 6.60078,-2.87993 15.07737,-7.486 25.43653,-13.84544 l 22.95237,-15.00481 c 6.23239,-3.52592 10.83403,-5.66688 13.76602,-6.40616 4.49685,-1.33405 9.42801,-1.669 14.79347,-1.00476 5.38238,0.67721 9.9502,1.583 13.6697,2.70704 6.9658,2.10584 14.49605,6.00691 22.55524,11.693 11.38492,-7.93456 23.99334,-13.06517 37.73908,-15.40296 4.85173,-0.70788 9.11708,-0.91024 12.83149,-0.60373 3.72627,0.31749 7.43561,1.03072 11.17539,2.16093 7.21929,2.18221 13.83361,6.34828 19.85308,12.51599 5.49558,-4.57967 10.78669,-7.70731 15.93248,-9.40928 5.87074,-1.48323 11.58096,-1.38987 17.05289,0.26424 13.45,4.06516 23.78717,11.66429 31.00816,22.78853 4.20112,-5.76459 8.28901,-10.22775 12.2282,-13.37067 3.95271,-3.1388 8.95484,-5.6859 14.99289,-7.64541 11.66883,-4.34611 22.82055,-4.89347 33.55319,-1.64916 l 4.35828,1.71796 5.50235,2.07088 c -5.42294,-17.07345 -13.35031,-32.47791 -23.85987,-46.21355 -5.9772,-8.04 -11.78036,-14.93684 -17.35368,-20.68754 -5.61052,-5.74754 -11.42212,-10.76187 -17.46185,-15.02874 -11.26664,-8.54006 -24.75382,-15.1918 -40.44127,-19.93352 -8.95989,-2.70808 -18.77321,-4.8653 -29.45176,-6.4758 -10.518,9.56218 -19.54212,16.84475 -27.0504,21.89198 -7.53024,5.02533 -17.24217,10.5789 -29.13745,16.59317 -11.91387,6.00819 -22.92532,10.47132 -33.05635,13.36764 -10.13269,2.89633 -21.85729,5.17747 -35.13661,6.84001 17.99924,-31.79577 14.91684,-68.4689 7.54882,-76.76641 -14.31693,-20.60551 -25.00392,40.75048 -40.02554,54.75848 14.63632,-27.19211 12.40226,-61.5212 -2.95564,-75.10924 -17.5734,-11.61933 -19.6672,43.3584 -43.42396,55.22892 -4.2214,5.6784 -15.30722,7.20772 -16.87714,10.52501 -3.0486,7.40302 -2.75118,6.06363 -9.70685,6.41612 L 117.5039,269.94302 C 105.5951,262.55911 95.435372,253.52218 87.011162,242.85035 l -23.05207,-34.19336 c -6.10734,-9.42242 -11.17369,-17.7362 -15.25652,-24.92877 -4.05408,-7.18421 -7.7195,-14.37673 -10.97258,-21.6006 -6.4656,-14.40603 -11.95443,-31.23959 -16.43438,-50.47003 -19.2345702,-13.664713 -35.68583,-23.653263 -49.42143,-29.979344 -13.70011,-6.3002 -34.37954,-13.634369 -62.04338,-21.995789 -23.165332,-7.002191 -44.312862,-11.019601 -63.437582,-12.065861 -19.14839,-1.03894 -41.55324,-0.0266 -67.24664,3.04125 5.75245,2.547391 10.92865,5.19552 15.5472,7.94182" /><path
       inkscape:export-ydpi="300"
       inkscape:export-xdpi="300"
       inkscape:export-filename="E:\Dropbox\7 - Atlas (1)\Iconographie\Proposition_logos\essais_logiciel_inkscape_requis\Selection\Selection_bleu.png"
       sodipodi:nodetypes="ccccccccccccccccccccccccccccccccccccscccsccscccccccccscccsccccccccccccccsccc"
       inkscape:connector-curvature="0"
       id="path3915-1"
       style="fill:#336791;fill-opacity:1;stroke:#ffffff;stroke-width:12;stroke-miterlimit:4;stroke-opacity:1;stroke-dasharray:none;display:inline"
       d="m -205.30453,58.599857 c 4.59994,2.75578 8.36504,5.51158 11.34435,8.30424 7.17537,6.7769 13.64434,14.96532 19.44074,24.57582 8.53236,14.770463 13.06808,30.767113 13.52604,47.965233 12.9498,3.91466 23.96971,8.39567 33.03101,13.43473 9.07989,5.05216 17.72378,11.92418 25.93846,20.6407 9.176214,10.08999 15.778696,19.26097 19.773645,27.51831 4.013539,8.24778 6.910046,19.28187 8.679383,33.0843 l 10.305075,1.08152 7.685715,1.50696 c 7.949341,2.4028 15.719551,7.32618 23.258244,14.76931 6.25605,6.21758 10.663338,12.49161 13.226933,18.8243 2.551765,6.32176 3.822578,13.54049 3.798919,21.66571 l 13.9890607,6.25419 c 3.188862,2.05479 5.568256,4.51773 7.136494,7.44055 2.436851,5.3522 2.904956,10.48786 1.389106,15.46134 l -3.009731,7.20831 c 3.640068,3.26679 5.482071,7.48945 5.529389,12.63872 l -0.427548,6.77937 c 4.7249893,8.89594 5.1221193,9.05437 12.1774993,16.28071 l 2.63626,12.08664 5.14578,6.45464 c 4.67429,6.15605 2.86947,10.57436 4.43263,13.48832 0,0 2.25266,0 12.49014,0 5.23703,-2.60052 13.26917,2.05755 16.23665,0 l 12.13356,0 19.98995,-2.62836 c 14.597446,-0.0169 16.118366,-0.004 24.790996,-1.0469 5.5767,-0.4736 10.26452,-0.88959 14.03133,-1.24258 3.81582,-0.33865 6.70894,-0.7399 8.75712,-1.21956 2.03465,-0.44559 5.71358,-1.50827 10.95569,-3.18134 5.26745,-1.65793 9.74064,-3.15532 13.40944,-4.48046 6.60079,-2.87993 15.07738,-7.48599 25.43654,-13.84544 l 22.95237,-15.00481 c 6.23239,-3.52591 10.83402,-5.66688 13.76601,-6.40615 4.49685,-1.33406 9.42801,-1.669 14.79348,-1.00476 5.38237,0.67721 9.9502,1.583 13.66969,2.70703 6.96581,2.10584 14.49606,6.00691 22.55524,11.693 11.38493,-7.93456 23.99335,-13.06517 37.73909,-15.40295 4.85173,-0.70788 9.11707,-0.91025 12.83149,-0.60374 3.72626,0.31749 7.43561,1.03072 11.17538,2.16093 7.2193,2.18222 13.83361,6.34828 19.85308,12.51599 5.49559,-4.57966 10.7867,-7.70731 15.93248,-9.40928 5.87075,-1.48323 11.58096,-1.38987 17.05289,0.26424 13.45,4.06516 23.78718,11.66429 31.00817,22.78853 4.20112,-5.76458 8.28901,-10.22774 12.2282,-13.37066 3.9527,-3.1388 8.95483,-5.68591 14.99289,-7.64541 11.66883,-4.34611 22.82055,-4.89347 33.55318,-1.64916 l 4.35828,1.71796 5.50235,2.07088 c -5.42293,-17.07346 -13.3503,-32.47791 -23.85986,-46.21355 -5.97721,-8.04 -11.78036,-14.93684 -17.35369,-20.68755 -5.61051,-5.74753 -11.42211,-10.76186 -17.46185,-15.02873 -11.26664,-8.54007 -24.75381,-15.1918 -40.44126,-19.93352 -8.9599,-2.70808 -18.77322,-4.86531 -29.45176,-6.4758 -10.51801,9.56217 -19.54213,16.84474 -27.05041,21.89197 -7.53024,5.02533 -17.24216,10.57891 -29.13744,16.59317 -11.91387,6.00819 -22.92533,10.47133 -33.05635,13.36764 -10.1327,2.89634 -21.8573,5.17747 -35.13662,6.84002 17.99924,-31.79578 14.91684,-68.46891 7.54883,-76.76642 -14.31693,-20.6055 -25.00392,40.75049 -40.02554,54.75848 14.63632,-27.1921 12.40226,-61.5212 -2.95565,-75.10923 -17.57339,-11.61934 -19.66719,43.3584 -43.42395,55.22891 -4.2214,5.6784 -15.30722,7.20772 -16.87714,10.52502 -3.0486,7.40301 -2.75118,6.06363 -9.70685,6.41612 L 117.5039,269.94302 C 105.5951,262.55911 95.435364,253.52218 87.011154,242.85035 l -23.05207,-34.19336 c -6.10734,-9.42243 -11.17369,-17.7362 -15.25651,-24.92878 -4.05409,-7.18421 -7.71951,-14.37673 -10.97259,-21.60059 -6.4656,-14.40603 -11.95443,-31.23959 -16.43438,-50.47003 C 2.0610367,97.992877 -14.390224,88.004327 -28.125819,81.678247 c -13.700109,-6.3002 -34.379548,-13.63437 -62.043388,-21.99579 -23.165323,-7.00219 -44.312853,-11.0196 -63.437573,-12.06586 -19.14839,-1.03894 -41.55324,-0.0266 -67.24664,3.04125 5.75245,2.54739 10.92865,5.19552 15.5472,7.94182" /></g></svg>